{
  "tracks": {
    "href": "https://api.spotify.com/v1/search?query=Digital+Love&type=track&offset=0&limit=1",
    "items": [
      {
        "album": {
          "album_type": "album",
          "artists": [
            {
              "external_urls": {
                "spotify": "https://open.spotify.com/artist/4tZwfgrHOc3mvqYlEYSvVi"
              },
              "href": "https://api.spotify.com/v1/artists/4tZwfgrHOc3mvqYlEYSvVi",
              "id": "4tZwfgrHOc3mvqYlEYSvVi",
              "name": "Daft Punk",
              "type": "artist",
              "uri": "spotify:artist:4tZwfgrHOc3mvqYlEYSvVi"
            }
          ],
          "available_markets": [
            "AD",
            "AE",
            "AR",
            "AT",
            "AU",
            "BE",
            "BG",
            "BH",
            "BO",
            "BR",
            "CA",
            "CH",
            "CL",
            "CO",
            "CR",
            "CY",
            "CZ",
            "DE",
            "DK",
            "DO",
            "DZ",
            "EC",
            "EE",
            "EG",
            "ES",
            "FI",
            "FR",
            "GB",
            "GR",
            "GT",
            "HK",
            "HN",
            "HU",
            "ID",
            "IE",
            "IL",
            "IS",
            "IT",
            "JO",
            "JP",
            "KW",
            "LB",
            "LI",
            "LT",
            "LU",
            "LV",
            "MA",
            "MC",
            "MT",
            "MX",
            "MY",
            "NI",
            "NL",
            "NO",
            "NZ",
            "OM",
            "PA",
            "PE",
            "PH",
            "PL",
            "PS",
            "PT",
            "PY",
            "QA",
            "RO",
            "SA",
            "SE",
            "SG",
            "SK",
            "SV",
            "TH",
            "TN",
            "TR",
            "TW",
            "US",
            "UY",
            "VN",
            "ZA"
          ],
          "external_urls": {
            "spotify": "https://open.spotify.com/album/2noRn2Aes5aoNVsU6iWThc"
          },
          "href": "https://api.spotify.com/v1/albums/2noRn2Aes5aoNVsU6iWThc",
          "id": "2noRn2Aes5aoNVsU6iWThc",
          "images": [
            {
              "height": 640,
              "url": "https://i.scdn.co/image/1a9dab25976c706fffccb6bf2cf8a6f5eadd0d29",
              "width": 640
            },
            {
              "height": 300,
              "url": "https://i.scdn.co/image/f04bb6fba32e89475d9981007aff21e13745dec2",
              "width": 300
            },
            {
              "height": 64,
              "url": "https://i.scdn.co/image/285c50b8d12090ce411acf5eba9cca721a4a1c0a",
              "width": 64
            }
          ],
          "name": "Discovery",
          "release_date": "2001-03-07",
          "release_date_precision": "day",
          "total_tracks": 14,
          "type": "album",
          "uri": "spotify:album:2noRn2Aes5aoNVsU6iWThc"
        },
        "artists": [
          {
            "external_urls": {
              "spotify": "https://open.spotify.com/artist/4tZwfgrHOc3mvqYlEYSvVi"
            },
            "href": "https://api.spotify.com/v1/artists/4tZwfgrHOc3mvqYlEYSvVi",
            "id": "4tZwfgrHOc3mvqYlEYSvVi",
            "name": "Daft Punk",
            "type": "artist",
            "uri": "spotify:artist:4tZwfgrHOc3mvqYlEYSvVi"
          }
        ],
        "available_markets": [
          "AD",
          "AE",
          "AR",
          "AT",
          "AU",
          "BE",
          "BG",
          "BH",
          "BO",
          "BR",
          "CA",
          "CH",
          "CL",
          "CO",
          "CR",
          "CY",
          "CZ",
          "DE",
          "DK",
          "DO",
          "DZ",
          "EC",
          "EE",
          "EG",
          "ES",
          "FI",
          "FR",
          "GB",
          "GR",
          "GT",
          "HK",
          "HN",
          "HU",
          "ID",
          "IE",
          "IL",
          "IS",
          "IT",
          "JO",
          "JP",
          "KW",
          "LB",
          "LI",
          "LT",
          "LU",
          "LV",
          "MA",
          "MC",
          "MT",
          "MX",
          "MY",
          "NI",
          "NL",
          "NO",
          "NZ",
          "OM",
          "PA",
          "PE",
          "PH",
          "PL",
          "PS",
          "PT",
          "PY",
          "QA",
          "RO",
          "SA",
          "SE",
          "SG",
          "SK",
          "SV",
          "TH",
          "TN",
          "TR",
          "TW",
          "US",
          "UY",
          "VN",
          "ZA"
        ],
        "disc_number": 1,
        "duration_ms": 301373,
        "explicit": false,
        "external_ids": {
          "isrc": "GBDUW0000058"
        },
        "external_urls": {
          "spotify": "https://open.spotify.com/track/2VEZx7NWsZ1D0eJ4uv5Fym"
        },
        "href": "https://api.spotify.com/v1/tracks/2VEZx7NWsZ1D0eJ4uv5Fym",
        "id": "2VEZx7NWsZ1D0eJ4uv5Fym",
        "is_local": false,
        "name": "Digital Love",
        "popularity": 62,
        "preview_url": "https://p.scdn.co/mp3-preview/7079f6d7bc465f71971454808d5039b35bd3fd2f?cid=3546f5553ae84a47840db926e7845c4b",
        "track_number": 3,
        "type": "track",
        "uri": "spotify:track:2VEZx7NWsZ1D0eJ4uv5Fym"
      }
    ],
    "limit": 1,
    "next": "https://api.spotify.com/v1/search?query=Digital+Love&type=track&offset=1&limit=1",
    "offset": 0,
    "previous": null,
    "total": 3692
  }
}